Atividade Final
…
S.polyphylla_gbif1 <- S.polyphylla_gbif$data %>%
  dplyr::select(scientificName, acceptedScientificName, decimalLatitude, decimalLongitude,
                issues,elevation, basisOfRecord, occurrenceStatus, rightsHolder, 
                datasetName, recordedBy, country, locality, stateProvince,county, habitat) 

S.polyphylla_gbif1

## # A tibble: 500 x 16
##    scientificName   acceptedScientifi~ decimalLatitude decimalLongitude issues  
##    <chr>            <chr>                        <dbl>            <dbl> <chr>   
##  1 Acacia polyphyl~ Senegalia polyphy~          13.7              -89.4 "colman~
##  2 Senegalia polyp~ Senegalia polyphy~         -12.1              -39.1 "gass84~
##  3 Senegalia polyp~ Senegalia polyphy~         -23.0              -52.8 "gass84~
##  4 Senegalia polyp~ Senegalia polyphy~         -23.4              -51.9 "gass84~
##  5 Senegalia polyp~ Senegalia polyphy~           7.92             -75.5 ""      
##  6 Senegalia polyp~ Senegalia polyphy~          -9.97             -41.3 "gass84~
##  7 Senegalia polyp~ Senegalia polyphy~          14.3              -89.6 "colman~
##  8 Senegalia polyp~ Senegalia polyphy~          -0.749            -77.4 "cdroun~
##  9 Senegalia polyp~ Senegalia polyphy~          -1.07             -77.7 "cdroun~
## 10 Senegalia polyp~ Senegalia polyphy~           5.80             -75.7 ""      
## # ... with 490 more rows, and 11 more variables: elevation <dbl>,
## #   basisOfRecord <chr>, occurrenceStatus <chr>, rightsHolder <chr>,
## #   datasetName <chr>, recordedBy <chr>, country <chr>, locality <chr>,
## #   stateProvince <chr>, county <chr>, habitat <chr>
…
